I Am Like Python and R But Not Quite - Plootra | Analytics for financial markets and investing
…
## 2-element Vector{Int64}:
##  1
##  3

# Another DataFrame
stockPrices = DataFrame(
    Date = ["2022-01-31","2022-02-28","2022-03-31","2022-04-30","2022-05-31","2022-06-30","2022-07-31","2022-08-31","2022-09-30","2022-10-31","2022-11-30","2022-12-31",
    "2022-01-31","2022-02-28","2022-03-31","2022-04-30","2022-05-31","2022-06-30","2022-07-31","2022-08-31","2022-09-30","2022-10-31","2022-11-30","2022-12-31"],
    Stock=["TSLA","TSLA","TSLA","TSLA","TSLA", "TSLA","TSLA","TSLA","TSLA","TSLA","TSLA","TSLA",
    "NFLX","NFLX","NFLX","NFLX","NFLX","NFLX","NFLX","NFLX","NFLX","NFLX","NFLX","NFLX"],
    Price=[312.24,290.14,359.2,290.25,252.75,224.47,297.15,275.61,265.25,227.54,194.7,121.82,
    427.14,394.52,374.59,190.36,197.44,174.87,224.9,223.56,235.44,291.88,305.53,291.12]
)

## 24×3 DataFrame
##  Row │ Date        Stock   Price
##      │ String      String  Float64
## ─────┼─────────────────────────────
##    1 │ 2022-01-31  TSLA     312.24
##    2 │ 2022-02-28  TSLA     290.14
##    3 │ 2022-03-31  TSLA     359.2
##    4 │ 2022-04-30  TSLA     290.25
##    5 │ 2022-05-31  TSLA     252.75
##    6 │ 2022-06-30  TSLA     224.47
##    7 │ 2022-07-31  TSLA     297.15
##    8 │ 2022-08-31  TSLA     275.61
##   ⋮  │     ⋮         ⋮        ⋮
##   18 │ 2022-06-30  NFLX     174.87
##   19 │ 2022-07-31  NFLX     224.9
##   20 │ 2022-08-31  NFLX     223.56
##   21 │ 2022-09-30  NFLX     235.44
##   22 │ 2022-10-31  NFLX     291.88
##   23 │ 2022-11-30  NFLX     305.53
##   24 │ 2022-12-31  NFLX     291.12
##                      9 rows omitted
…
CSV.write("stockPrices.csv", stockPrices)

## "stockPrices.csv"

Reading data from csv as DataFrame

I am neither Python nor R.

First import me

and then hug me with DataFrame()

stockPrices = DataFrame(CSV.File("stockPrices.csv"))

## 24×3 DataFrame
##  Row │ Date        Stock    Price
##      │ Date        String7  Float64
## ─────┼──────────────────────────────
##    1 │ 2022-01-31  TSLA      312.24
##    2 │ 2022-02-28  TSLA      290.14
##    3 │ 2022-03-31  TSLA      359.2
##    4 │ 2022-04-30  TSLA      290.25
##    5 │ 2022-05-31  TSLA      252.75
##    6 │ 2022-06-30  TSLA      224.47
##    7 │ 2022-07-31  TSLA      297.15
##    8 │ 2022-08-31  TSLA      275.61
##   ⋮  │     ⋮          ⋮        ⋮
##   18 │ 2022-06-30  NFLX      174.87
##   19 │ 2022-07-31  NFLX      224.9
##   20 │ 2022-08-31  NFLX      223.56
##   21 │ 2022-09-30  NFLX      235.44
##   22 │ 2022-10-31  NFLX      291.88
##   23 │ 2022-11-30  NFLX      305.53
##   24 │ 2022-12-31  NFLX      291.12
##                       9 rows omitted
…
